Collecting and Analyzing Social Media Data
…
# Capturing hashtags
E(net)$hash <- str_extract_all(tweets_tidy_rt$text,
                               "#\\S+")
```
]
.panel[.panel-name[Accessing the raw]

```r
# grab expanded and unwound_url
*entities <- tweets_raw$tweet.entities.urls
entities 
```

```
## # A tibble: 32,703 × 12
##    tweet…¹ start   end url   expan…² displ…³ media…⁴ images status title descr…⁵
##    <chr>   <int> <int> <chr> <chr>   <chr>   <chr>   <list>  <int> <chr> <chr>  
##  1 157706…    73    96 http… https:… pic.tw… 7_1507… <NULL>     NA <NA>  <NA>   
##  2 157706…    56    79 http… https:… pic.tw… 7_1577… <NULL>     NA <NA>  <NA>   
##  3 157706…    75    98 http… https:… notici… <NA>    <df>      200 Perf… Com vi…
##  4 157706…    77   100 http… https:… twitte… <NA>    <NULL>     NA <NA>  <NA>   
##  5 157706…    62    85 http… https:… revist… <NA>    <NULL>    200 Zema… Govern…
##  6 157706…    99   122 http… https:… pic.tw… 7_1577… <NULL>     NA <NA>  <NA>   
##  7 157706…    33    56 http… https:… pic.tw… 3_1577… <NULL>     NA <NA>  <NA>   
##  8 157706…    87   110 http… https:… pic.tw… 7_1558… <NULL>     NA <NA>  <NA>   
##  9 157706…    95   118 http… https:… uol.pa… <NA>    <df>      200 Perf… Com vi…
## 10 157706…   243   266 http… https:… twitte… <NA>    <NULL>     NA <NA>  <NA>   
## # … with 32,693 more rows, 1 more variable: unwound_url <chr>, and abbreviated
## #   variable names ¹​tweet_id, ²​expanded_url, ³​display_url, ⁴​media_key,
## #   ⁵​description
## # ℹ Use `print(n = ...)` to see more rows, and `colnames()` to see all variable names
```
…
]
.panel[.panel-name[Outpute]

```r
# I will get only from the 100 most retweeted to save some time. 
users_most_retweets
```

```
## # A tibble: 30 × 16
## # Groups:   membership [3]
##    name          ind membe…¹ locat…² name1 verif…³ prote…⁴ entit…⁵ url   profi…⁶
##    <chr>       <dbl>   <dbl> <chr>   <chr> <lgl>   <lgl>   <list>  <chr> <chr>  
##  1 838099262    2480       4 Rio de… Patr… TRUE    FALSE   <df>    http… https:…
##  2 1404506222…  1549       4 <NA>    Cent… FALSE   FALSE   <df>    http… https:…
##  3 65720380     1451       4 Rio de… Glau… TRUE    FALSE   <df>    http… https:…
##  4 1330082400…  1331       4 São Pa… Frot… TRUE    FALSE   <df>    http… https:…
##  5 31139434     1245       4 Curiti… Glei… TRUE    FALSE   <df>    http… https:…
##  6 57771039     1201       4 Santos… Rena… TRUE    FALSE   <df>    http… https:…
##  7 58288300     1065       4 São Pa… Gers… TRUE    FALSE   <df>    http… https:…
##  8 1097073004…  1056       4 <NA>    Pedr… FALSE   FALSE   <NULL>  <NA>  https:…
##  9 14594698     1014       4 Brasil  UOL … TRUE    FALSE   <df>    http… https:…
## 10 16794066      872       4 <NA>    Blog… TRUE    FALSE   <NULL>  <NA>  https:…
## # … with 20 more rows, 7 more variables: entities$description <df[,2]>,
## #   description <chr>, created_at <chr>, username <chr>,
## #   public_metrics <df[,4]>, id <chr>, pinned_tweet_id <chr>, and abbreviated
## #   variable names ¹​membership, ²​location, ³​verified, ⁴​protected,
## #   ⁵​entities$url$urls, ⁶​profile_image_url
## # ℹ Use `print(n = ...)` to see more rows, and `colnames()` to see all variable names
```
…
